…
# Extract partitions
multiclass_train_set <- multiclass_partitions[[1]]
multiclass_test_set <- multiclass_partitions[[2]]

multiclass_test_set
#> # A tibble: 26 x 4
#>    predictor_1 predictor_2 predictor_3 class  
#>          <dbl>       <dbl>       <dbl> <chr>  
#>  1      1.60         0.158     -0.331  class_1
#>  2     -1.99        -0.180     -0.341  class_1
#>  3      0.418       -0.324      0.263  class_1
#>  4      0.398        0.450      0.136  class_1
#>  5      0.0743       1.03      -1.32   class_1
#>  6      0.738        0.910      0.541  class_2
#>  7      0.576        0.384     -0.0134 class_2
#>  8     -0.305        1.68       0.510  class_2
#>  9     -0.0449      -0.393      1.52   class_2
#> 10      0.557       -0.464     -0.879  class_2
#> # … with 16 more rows
```
…
#> # A tibble: 9 x 6
#>   Measure   RMSE    MAE  NRMSE RMSEIQR `Training Rows`
#>   <chr>    <dbl>  <dbl>  <dbl>   <dbl>           <dbl>
#> 1 Mean     19.7  15.8   0.290   0.949             9.63
#> 2 Median   19.2  15.5   0.282   0.925             9   
#> 3 SD        1.05  0.759 0.0154  0.0504            3.22
#> 4 IQR       1.16  0.264 0.0171  0.0560            5   
#> 5 Max      24.1  19.4   0.355   1.16             15   
#> 6 Min      18.9  15.5   0.278   0.912             5   
#> 7 NAs       0     0     0       0                 0   
#> 8 INFs      0     0     0       0                 0   
#> 9 All_rows 19.1  15.5   0.282   0.923            18   
#> 
#> $random_evaluations
#> # A tibble: 100 x 10
#>     RMSE   MAE NRMSE RMSEIQR Predictions Coefficients `Training Rows` Family
#>    <dbl> <dbl> <dbl>   <dbl> <list>      <list>                 <int> <chr> 
#>  1  20.0  16.3 0.294   0.964 <tibble [1… <tibble [1 …               8 gauss…
#>  2  19.0  15.5 0.279   0.914 <tibble [1… <tibble [1 …              15 gauss…
#>  3  20.2  15.7 0.296   0.971 <tibble [1… <tibble [1 …               7 gauss…
#>  4  20.0  15.7 0.295   0.966 <tibble [1… <tibble [1 …              11 gauss…
#>  5  19.3  15.6 0.284   0.931 <tibble [1… <tibble [1 …               8 gauss…
#>  6  20.4  15.9 0.300   0.985 <tibble [1… <tibble [1 …               5 gauss…
#>  7  19.0  15.5 0.279   0.915 <tibble [1… <tibble [1 …              13 gauss…
#>  8  19.4  15.5 0.285   0.933 <tibble [1… <tibble [1 …              10 gauss…
#>  9  20.7  16.2 0.305   1.000 <tibble [1… <tibble [1 …               8 gauss…
#> 10  20.8  17.1 0.306   1.00  <tibble [1… <tibble [1 …               5 gauss…
#> # … with 90 more rows, and 2 more variables: Dependent <chr>, Fixed <chr>
```
…
#>  2 Median             0.5     0.5         0.5         0.5              0.5  
#>  3 SD                 0.147   0.159       0.215       0.210            0.194
#>  4 IQR                0.167   0.252       0.333       0.333            0.200
#>  5 Max                0.833   0.833       0.833       1                1    
#>  6 Min                0.167   0.182       0           0                0    
#>  7 NAs                0       4           0           0                0    
#>  8 INFs               0       0           0           0                0    
#>  9 All_0              0.5   NaN           0           1              NaN    
#> 10 All_1              0.5     0.667       1           0                0.5  
#> # … with 9 more variables: `Neg Pred Value` <dbl>, AUC <dbl>, `Lower CI` <dbl>,
#> #   `Upper CI` <dbl>, Kappa <dbl>, MCC <dbl>, `Detection Rate` <dbl>,
#> #   `Detection Prevalence` <dbl>, Prevalence <dbl>
#> 
#> $random_evaluations
#> # A tibble: 100 x 19
#>    `Balanced Accur…    F1 Sensitivity Specificity `Pos Pred Value`
#>               <dbl> <dbl>       <dbl>       <dbl>            <dbl>
#>  1            0.417 0.364       0.333       0.5              0.4  
#>  2            0.5   0.5         0.5         0.5              0.5  
#>  3            0.417 0.364       0.333       0.5              0.4  
#>  4            0.667 0.6         0.5         0.833            0.75 
#>  5            0.583 0.667       0.833       0.333            0.556
#>  6            0.667 0.6         0.5         0.833            0.75 
#>  7            0.25  0.308       0.333       0.167            0.286
#>  8            0.5   0.4         0.333       0.667            0.5  
#>  9            0.25  0.182       0.167       0.333            0.2  
#> 10            0.417 0.222       0.167       0.667            0.333
#> # … with 90 more rows, and 14 more variables: `Neg Pred Value` <dbl>,
#> #   AUC <dbl>, `Lower CI` <dbl>, `Upper CI` <dbl>, Kappa <dbl>, MCC <dbl>,
#> #   `Detection Rate` <dbl>, `Detection Prevalence` <dbl>, Prevalence <dbl>,
#> #   Predictions <list>, ROC <list>, `Confusion Matrix` <list>, Family <chr>,
#> #   Dependent <chr>
```
…
# Random evaluations
# Note, that the class level results for each repetition
# is available as well
multiclass_baseline$random_evaluations
#> # A tibble: 100 x 18
#>    Repetition `Overall Accura… `Balanced Accur…      F1 Sensitivity Specificity
#>         <int>            <dbl>            <dbl>   <dbl>       <dbl>       <dbl>
#>  1          1            0.154            0.445 NaN           0.171       0.719
#>  2          2            0.269            0.518 NaN           0.279       0.758
#>  3          3            0.192            0.460   0.195       0.193       0.727
#>  4          4            0.385            0.591   0.380       0.386       0.797
#>  5          5            0.154            0.430 NaN           0.143       0.717
#>  6          6            0.154            0.438 NaN           0.157       0.718
#>  7          7            0.154            0.445 NaN           0.171       0.719
#>  8          8            0.346            0.574   0.341       0.364       0.784
#>  9          9            0.308            0.541   0.315       0.314       0.767
#> 10         10            0.308            0.536   0.322       0.3         0.772
#> # … with 90 more rows, and 12 more variables: `Pos Pred Value` <dbl>, `Neg Pred
#> #   Value` <dbl>, Kappa <dbl>, MCC <dbl>, `Detection Rate` <dbl>, `Detection
#> #   Prevalence` <dbl>, Prevalence <dbl>, Predictions <list>, `Confusion
#> #   Matrix` <list>, `Class Level Results` <list>, Family <chr>, Dependent <chr>
```
…
